{
    "ios": {
        "debug": {
            "codeSignIdentity": "iPhone Development",
            "provisioningProfile": "61864651-ccdb-422e-bad7-0a38ae232380",
            "developmentTeam": "UX75Y9M8LU",
            "packageType": "development"
        },
        "release": {
            "codeSignIdentity": "iPhone Distribution",
            "provisioningProfile": "61864651-ccdb-422e-bad7-0a38ae232380",
            "developmentTeam": "UX75Y9M8LU",
            "packageType": "app-store"
        }
    }
}