{
    "libz.tbd": 2,
    "GD.framework": 2,
    "LocalAuthentication.framework": 2,
    "CFNetwork.framework": 2,
    "CoreData.framework": 2,
    "CoreTelephony.framework": 2,
    "QuartzCore.framework": 2,
    "Security.framework": 2,
    "MessageUI.framework": 2,
    "SystemConfiguration.framework": 2,
    "libstdc++.tbd": 2,
    "libstdc++.6.0.9.tbd": 2
}