{
    "prepare_queue": {
        "installed": [],
        "uninstalled": []
    },
    "config_munge": {
        "files": {}
    },
    "installed_plugins": {
        "com.phonegap.plugins.PushPlugin": {
            "PACKAGE_NAME": "com.dbs.sg.va07"
        },
        "cordova-plugin-clipboard-x": {
            "PACKAGE_NAME": "com.dbs.sg.va07"
        },
        "cordova-plugin-console": {
            "PACKAGE_NAME": "com.dbs.sg.va07"
        },
        "cordova-plugin-device": {
            "PACKAGE_NAME": "com.dbs.sg.va07"
        },
        "cordova-plugin-globalization": {
            "PACKAGE_NAME": "com.dbs.sg.va07"
        },
        "cordova-plugin-inappbrowser": {
            "PACKAGE_NAME": "com.dbs.sg.va07"
        },
        "cordova-plugin-statusbar": {
            "PACKAGE_NAME": "com.dbs.sg.va07"
        },
        "cordova-plugin-whitelist": {
            "PACKAGE_NAME": "com.dbs.sg.va07"
        },
        "cordova-plugin-bbd-xmlhttprequest": {
            "PACKAGE_NAME": "com.dbs.sg.va07"
        },
        "cordova-plugin-bbd-storage": {
            "PACKAGE_NAME": "com.dbs.sg.va07"
        },
        "cordova-plugin-bbd-httprequest": {
            "PACKAGE_NAME": "com.dbs.sg.va07"
        }
    },
    "dependent_plugins": {
        "cordova-plugin-bbd-base": {
            "PACKAGE_NAME": "com.dbs.sg.va07"
        }
    }
}