{
  "GDLibraryMode": "GDEnterprise",
  "GDApplicationID":"com.dbs.sg.va07",
  "GDApplicationVersion":"1.0.0.0",
  "GDConsoleLogger": [
    "GDFilterErrors_",
    "GDFilterWarnings_",
    "GDFilterInfo_",
    "GDFilterDetailed_",
  ]
}
